test/simulation/qsim/test.msim.vcd
$comment
	File created using the following command:
		vcd file test.msim.vcd -direction
$end
$date
	Thu May 13 16:14:29 2021
$end
$version
	ModelSim Version 10.5b
$end
$timescale
	1ps
$end

$scope module test_vlg_vec_tst $end
$var reg 4 ! G [3:0] $end
$var wire 1 " B [3] $end
$var wire 1 # B [2] $end
$var wire 1 $ B [1] $end
$var wire 1 % B [0] $end

$scope module i1 $end
$var wire 1 & gnd $end
$var wire 1 ' vcc $end
$var wire 1 ( unknown $end
$var tri1 1 ) devclrn $end
$var tri1 1 * devpor $end
$var tri1 1 + devoe $end
$var wire 1 , B[0]~output_o $end
$var wire 1 - B[1]~output_o $end
$var wire 1 . B[2]~output_o $end
$var wire 1 / B[3]~output_o $end
$var wire 1 0 G[2]~input_o $end
$var wire 1 1 G[3]~input_o $end
$var wire 1 2 G[1]~input_o $end
$var wire 1 3 G[0]~input_o $end
$var wire 1 4 B~0_combout $end
$var wire 1 5 B~1_combout $end
$var wire 1 6 B~2_combout $end
$upscope $end
$upscope $end
$enddefinitions $end
#0
$dumpvars
b0 !
0%
0$
0#
0"
0&
1'
x(
1)
1*
1+
0,
0-
0.
0/
00
01
02
03
04
05
06
$end
#5000
b1 !
13
14
1,
1%
#10000
b11 !
b10 !
12
03
15
1-
1$
#15000
b11 !
13
04
0,
0%
#20000
b111 !
b101 !
b100 !
10
02
03
16
14
1,
1.
1#
1%
#25000
b101 !
13
04
0,
0%
#30000
b111 !
b110 !
12
03
05
0-
0$
#35000
b111 !
13
14
1,
1%
#40000
b1111 !
b1011 !
b1001 !
b1000 !
00
02
03
11
1/
1"
15
1-
1$
#45000
b1001 !
13
04
0,
0%
#50000
b1011 !
b1010 !
12
03
05
0-
0$
#55000
b1011 !
13
14
1,
1%
#60000
b1111 !
b1101 !
b1100 !
10
02
03
06
04
0,
0.
0#
0%
#65000
b1101 !
13
14
1,
1%
#70000
b1111 !
b1110 !
12
03
15
1-
1$
#75000
b1111 !
13
04
0,
0%
#80000
b111 !
b11 !
b1 !
b0 !
00
02
03
01
0/
0"
05
0-
0$
#85000
b1 !
13
14
1,
1%
#90000
b11 !
b10 !
12
03
15
1-
1$
#95000
b11 !
13
04
0,
0%
