test1/simulation/qsim/test1.msim.vcd
$comment
	File created using the following command:
		vcd file test1.msim.vcd -direction
$end
$date
	Wed Jun 09 18:33:33 2021
$end
$version
	ModelSim Version 10.5b
$end
$timescale
	1ps
$end

$scope module test1_vlg_vec_tst $end
$var reg 1 ! A $end
$var reg 1 " B $end
$var wire 1 # Q0 $end
$var wire 1 $ Q1 $end

$scope module i1 $end
$var wire 1 % gnd $end
$var wire 1 & vcc $end
$var wire 1 ' unknown $end
$var tri1 1 ( devclrn $end
$var tri1 1 ) devpor $end
$var tri1 1 * devoe $end
$var wire 1 + Q0~output_o $end
$var wire 1 , Q1~output_o $end
$var wire 1 - A~input_o $end
$var wire 1 . B~input_o $end
$var wire 1 / Q1~0_combout $end
$var wire 1 0 Q1~reg0_q $end
$var wire 1 1 Q0~0_combout $end
$var wire 1 2 Q0~reg0_q $end
$upscope $end
$upscope $end
$enddefinitions $end
#0
$dumpvars
0!
0"
0#
0$
0%
1&
x'
1(
1)
1*
0+
0,
0-
0.
0/
00
11
02
$end
#40000
1"
1.
#80000
0"
0.
#120000
1"
1.
#140000
1!
1-
12
1+
1#
01
1/
#160000
0"
0.
#200000
1"
1.
10
1,
1$
0/
#240000
0"
0.
#280000
1"
1.
00
0,
0$
1/
#320000
0"
0.
#360000
1"
1.
10
1,
1$
0/
#400000
0"
0.
#440000
1"
1.
00
0,
0$
1/
#480000
0"
0.
#500000
0!
0-
#520000
1"
1.
10
1,
1$
0/
#560000
0"
0.
#600000
1"
1.
00
0,
0$
1/
#640000
0"
0.
#680000
1"
1.
10
1,
1$
0/
#720000
0"
0.
#760000
1"
1.
00
0,
0$
1/
#800000
0"
0.
#820000
1!
1-
02
0+
0#
11
0/
#840000
1"
1.
#880000
0"
0.
#920000
1"
1.
#960000
0"
0.
#1000000
1"
1.
#1040000
0"
0.
#1080000
1"
1.
#1120000
0"
0.
#1160000
1"
1.
#1180000
0!
0-
#1200000
0"
0.
#1240000
1"
1.
#1280000
0"
0.
#1320000
1"
1.
#1360000
0"
0.
#1400000
1"
1.
#1440000
0"
0.
#1480000
1"
1.
#1520000
0"
0.
#1560000
1"
1.
#1600000
0"
0.
#1640000
1"
1.
#1680000
0"
0.
#1720000
1"
1.
#1760000
0"
0.
#1800000
1"
1.
#1840000
0"
0.
#1880000
1"
1.
#1920000
0"
0.
#1960000
1"
1.
